<?xml version="1.0" encoding="utf-8"?>
<!-- Generator: Adobe Illustrator 26.0.3, SVG Export Plug-In . SVG Version: 6.00 Build 0)  -->
<svg version="1.1" id="Ebene_1" xmlns="http://www.w3.org/2000/svg" xmlns:xlink="http://www.w3.org/1999/xlink" x="0px" y="0px"
	 viewBox="0 0 705.7 166.9" style="enable-background:new 0 0 705.7 166.9;" xml:space="preserve">
<g>
	<path d="M108.7,151.1c-13.3,10.5-31.1,15.8-48.2,15.8c-21.4,0-42.6-5.2-60.5-19.8l19.8-33.2c11,9,24.1,17.3,39.2,17.3
		c10.4,0,20.5-3.1,20.5-14.2c0-11.6-16.4-12.2-25.9-14.6C33.1,97.1,7.6,90.2,7.6,53.2C7.6,21,32.2,0,66.2,0c17.1,0,38.9,7.9,54,15.9
		l-18.8,31.3c-8.7-5.6-22.7-8.9-29.3-8.9c-8.1,0-18.5,2.3-18.5,11.1c0,9.3,10.3,11,19.6,13.5c0,0,11.5,2.5,16.3,4.1
		c21.1,6.9,36.8,14.3,36.8,42.4C126.3,125.1,122.2,140.4,108.7,151.1"/>
	<path d="M207.4,3.2h-70.3v158.9h45.3v-52.4h23c40,0,53-23,53-54.1C258.4,32.5,247.8,3.2,207.4,3.2z M185.8,74.9h-3.5V37.8h3.5
		c16.1,0,29.8,0,29.8,18.6C215.6,75.8,200.8,74.9,185.8,74.9z"/>
	<path d="M335.5,3.8h-67.1v158.9h67.1c43.9,0,71-35.1,71-79.7S379.6,3.8,335.5,3.8z M318.1,125.7h-4.9V40.9h5.3
		c26.5,0,42.6,17.3,42.6,41.6C361.1,111.3,342.7,125.7,318.1,125.7z"/>
</g>
<g>
	<path d="M477.2,34.9c0,1.9-0.4,3.7-1.1,5.3c-0.7,1.6-1.8,3-3.2,4.2c-1.4,1.2-3.1,2.1-5.1,2.7c-2,0.6-4.3,1-6.9,1
		c-1.8,0-3.5-0.1-5.1-0.3c-1.6-0.2-3.1-0.5-4.5-0.8l0.8-9c1.4,0.6,2.9,1,4.5,1.3c1.6,0.3,3.2,0.5,4.7,0.5c1.7,0,3.1-0.3,4.1-1
		c1-0.6,1.5-1.6,1.5-3c0-1.1-0.4-1.9-1.1-2.6c-0.7-0.7-1.8-1.3-3.1-1.9c-1.3-0.6-2.8-1.2-4.3-1.9c-1.5-0.7-2.8-1.5-4-2.4
		c-1.2-0.9-2.2-2.1-2.9-3.5c-0.8-1.5-1.1-3.2-1.1-5.3c0-1.9,0.4-3.6,1.1-5.1c0.7-1.6,1.8-2.9,3.2-4c1.4-1.1,3.1-2,5.1-2.5
		c2-0.6,4.2-0.9,6.7-0.9c1.1,0,2.4,0.1,3.7,0.2c1.3,0.1,2.6,0.3,3.7,0.6l-0.8,8.3c-2.3-0.8-4.6-1.2-7.1-1.2c-1.9,0-3.3,0.3-4.2,1
		c-0.9,0.7-1.4,1.6-1.4,2.8c0,1,0.4,1.8,1.1,2.5c0.7,0.7,1.8,1.3,3.1,1.9c1.3,0.6,2.7,1.2,4.3,1.9c1.6,0.7,2.9,1.5,4.1,2.4
		c1.2,0.9,2.2,2.1,2.9,3.6C476.8,31,477.2,32.8,477.2,34.9z"/>
	<path d="M510.6,31.5c0,2.5-0.4,4.8-1.2,6.9c-0.8,2.1-1.9,3.9-3.3,5.3c-1.4,1.4-3.1,2.5-5,3.2c-1.9,0.7-4,1.1-6.2,1.1
		c-2.2,0-4.2-0.3-5.9-0.9c-1.8-0.6-3.3-1.5-4.5-2.7c-1.3-1.2-2.2-2.8-2.9-4.6c-0.7-1.9-1-4.1-1-6.7c0-2.5,0.4-4.8,1.1-6.9
		c0.8-2.1,1.8-3.8,3.2-5.3c1.4-1.4,3-2.5,4.9-3.3c1.9-0.8,4-1.2,6.4-1.2c4.6,0,8.2,1.3,10.7,3.8C509.4,22.9,510.6,26.6,510.6,31.5z
		 M501.1,32.3c0-2.6-0.5-4.5-1.4-5.9c-1-1.3-2.3-2-4-2c-0.7,0-1.4,0.1-2,0.4c-0.7,0.2-1.3,0.7-1.8,1.3c-0.6,0.6-1,1.5-1.3,2.5
		s-0.5,2.2-0.5,3.6c0,2.5,0.5,4.5,1.4,5.8c0.9,1.3,2.3,2,4.1,2c1.8,0,3.1-0.7,4.1-2C500.6,36.8,501.1,34.8,501.1,32.3z"/>
	<path d="M515,47.4v-6.6l10.4-15.4c-0.4,0-1.1,0.1-2,0.1c-0.9,0-2,0-3.4,0h-4.7v-8.3h21.3v6.6l-10.2,15.1c1.6,0,2.8-0.1,3.7-0.1
		c0.9,0,1.6,0,2.1,0h4.5v8.5H515z"/>
	<path d="M553.3,8.2c0,0.8-0.2,1.5-0.5,2.2c-0.3,0.7-0.7,1.2-1.2,1.7c-0.5,0.5-1.1,0.9-1.8,1.2c-0.7,0.3-1.4,0.4-2.2,0.4
		c-0.8,0-1.5-0.1-2.2-0.4c-0.7-0.3-1.3-0.7-1.8-1.2c-0.5-0.5-0.9-1.1-1.2-1.7c-0.3-0.7-0.5-1.4-0.5-2.2c0-0.7,0.1-1.4,0.5-2.1
		c0.3-0.7,0.7-1.3,1.2-1.8c0.5-0.5,1.1-0.9,1.8-1.2c0.7-0.3,1.4-0.4,2.2-0.4c0.8,0,1.5,0.1,2.2,0.4c0.7,0.3,1.3,0.7,1.8,1.2
		c0.5,0.5,0.9,1.1,1.2,1.7S553.3,7.4,553.3,8.2z M543.1,47.4V17.2h9.1v30.2H543.1z"/>
	<path d="M575.5,47.4c0-0.7,0-1.5,0-2.2c0-0.8,0.1-1.5,0.2-2.3h-0.1c-0.7,1.6-1.9,2.8-3.6,3.8c-1.6,1-3.5,1.4-5.6,1.4
		c-1.4,0-2.7-0.2-3.8-0.7c-1.1-0.5-2-1.1-2.7-1.9c-0.7-0.8-1.3-1.7-1.7-2.8c-0.4-1.1-0.6-2.2-0.6-3.5c0-1.9,0.4-3.5,1.3-4.9
		c0.8-1.4,2-2.4,3.5-3.3c1.5-0.8,3.3-1.4,5.3-1.8c2.1-0.4,4.3-0.6,6.8-0.6v-0.9c0-1.5-0.4-2.6-1.2-3.2c-0.8-0.6-2-0.9-3.5-0.9
		c-1.3,0-2.8,0.2-4.3,0.5c-1.5,0.3-3.1,0.8-4.8,1.5l-1.4-7c1.6-0.6,3.4-1.1,5.5-1.5c2.1-0.4,4.1-0.6,6.1-0.6c2.5,0,4.6,0.2,6.2,0.7
		c1.6,0.4,2.9,1.1,3.9,2c1,0.9,1.7,2,2.1,3.3c0.4,1.3,0.6,2.8,0.6,4.6v13.1c0,1.1,0,2.3,0.1,3.5c0,1.3,0.1,2.5,0.2,3.6H575.5z
		 M574.6,34.4c-1.6,0-3,0.1-4,0.3c-1.1,0.2-1.9,0.5-2.5,0.8c-0.6,0.3-1,0.7-1.2,1.2c-0.2,0.5-0.3,0.9-0.3,1.4c0,0.7,0.3,1.4,0.8,2
		c0.5,0.6,1.3,0.9,2.2,0.9c0.8,0,1.5-0.2,2.1-0.5c0.6-0.3,1.2-0.7,1.6-1.3c0.4-0.5,0.8-1.1,1.1-1.8c0.3-0.7,0.4-1.4,0.4-2.1V34.4z"
		/>
	<path d="M591,47.4V3.1h9.1v44.3H591z"/>
	<path d="M632.9,29.6c0,0.6,0,1.4-0.1,2.4c-0.1,0.9-0.1,1.8-0.2,2.7h-17.8c0,1.9,0.5,3.5,1.6,4.6c1.1,1.1,2.9,1.7,5.5,1.7
		c1.4,0,2.9-0.1,4.4-0.4c1.5-0.3,3.1-0.7,4.7-1.2l0.9,6.8c-1.7,0.6-3.6,1.1-5.5,1.4c-1.9,0.3-3.8,0.5-5.6,0.5c-5,0-8.9-1.3-11.4-3.8
		c-2.6-2.5-3.8-6.4-3.8-11.6c0-2.3,0.3-4.4,1-6.3c0.6-1.9,1.6-3.6,2.8-5c1.2-1.4,2.8-2.6,4.6-3.4c1.8-0.8,3.9-1.3,6.3-1.3
		c2.2,0,4.2,0.4,5.9,1.1c1.7,0.7,3,1.7,4.1,2.9c1,1.3,1.8,2.7,2.2,4.2C632.7,26.4,632.9,28,632.9,29.6z M622.8,24.6
		c-0.8-0.9-1.8-1.3-3.2-1.3c-1.3,0-2.4,0.5-3.3,1.5c-0.9,1-1.4,2.3-1.6,3.9h9.1C623.9,26.8,623.6,25.5,622.8,24.6z"/>
	<path d="M481,76.9c0,2.1-0.4,4.1-1.1,5.9c-0.7,1.8-1.8,3.5-3.2,4.9c-1.4,1.4-3.2,2.5-5.3,3.3c-2.1,0.8-4.5,1.2-7.2,1.2
		c-0.5,0-1,0-1.5,0c-0.5,0-0.8,0-1,0v12.6h-9.4v-41c0.4,0,1.2-0.1,2.3-0.1c1.1,0,2.6-0.1,4.4-0.1c1.8,0,3.7-0.1,5.6-0.1
		c5.3,0,9.4,1.2,12.2,3.5C479.6,69.3,481,72.6,481,76.9z M471.4,77.8c0-2-0.6-3.6-1.8-4.8c-1.2-1.2-3-1.8-5.4-1.8c-0.5,0-1,0-1.5,0
		c-0.5,0-0.9,0.1-1.1,0.1v12.9c0,0,0.1,0,0.3,0c0.2,0,0.4,0.1,0.7,0.1c0.3,0,0.6,0.1,0.9,0.1c0.3,0,0.7,0,1.1,0c2.1,0,3.8-0.6,5-1.8
		C470.8,81.4,471.4,79.8,471.4,77.8z"/>
	<path d="M511.8,88.9c0,2.5-0.4,4.8-1.2,6.9c-0.8,2.1-1.9,3.9-3.3,5.3c-1.4,1.4-3.1,2.5-5,3.2c-1.9,0.7-4,1.1-6.2,1.1
		c-2.2,0-4.2-0.3-5.9-0.9c-1.8-0.6-3.3-1.5-4.5-2.7c-1.3-1.2-2.2-2.8-2.9-4.6c-0.7-1.9-1-4.1-1-6.7c0-2.5,0.4-4.8,1.1-6.9
		c0.8-2.1,1.8-3.8,3.2-5.3c1.4-1.4,3-2.5,4.9-3.3c1.9-0.8,4-1.2,6.4-1.2c4.6,0,8.2,1.3,10.7,3.8C510.5,80.2,511.8,84,511.8,88.9z
		 M502.3,89.6c0-2.6-0.5-4.5-1.4-5.9c-1-1.3-2.3-2-4-2c-0.7,0-1.4,0.1-2,0.4s-1.3,0.7-1.8,1.3c-0.6,0.6-1,1.5-1.3,2.5
		c-0.3,1-0.5,2.2-0.5,3.6c0,2.5,0.5,4.5,1.4,5.8c0.9,1.3,2.3,2,4.1,2c1.8,0,3.1-0.7,4.1-2C501.8,94.1,502.3,92.2,502.3,89.6z"/>
	<path d="M515.9,104.7V60.4h9.1v44.3H515.9z"/>
	<path d="M542.4,65.5c0,0.8-0.2,1.5-0.5,2.2c-0.3,0.7-0.7,1.2-1.2,1.7c-0.5,0.5-1.1,0.9-1.8,1.2c-0.7,0.3-1.4,0.4-2.2,0.4
		c-0.8,0-1.5-0.1-2.2-0.4c-0.7-0.3-1.3-0.7-1.8-1.2c-0.5-0.5-0.9-1.1-1.2-1.7c-0.3-0.7-0.5-1.4-0.5-2.2c0-0.7,0.1-1.4,0.5-2.1
		c0.3-0.7,0.7-1.3,1.2-1.8c0.5-0.5,1.1-0.9,1.8-1.2c0.7-0.3,1.4-0.4,2.2-0.4c0.8,0,1.5,0.1,2.2,0.4c0.7,0.3,1.3,0.7,1.8,1.2
		c0.5,0.5,0.9,1.1,1.2,1.7C542.2,64.1,542.4,64.8,542.4,65.5z M532.1,104.7V74.5h9.1v30.2H532.1z"/>
	<path d="M565.8,104.5c-1,0.3-2.1,0.5-3.3,0.7c-1.2,0.2-2.3,0.2-3.3,0.2c-1.8,0-3.2-0.2-4.4-0.5c-1.2-0.3-2.1-0.9-2.8-1.6
		c-0.7-0.7-1.2-1.8-1.5-3c-0.3-1.3-0.5-2.9-0.5-4.8V81.6h-4.5v-7.1h4.5v-8.9l9.1-2.5v11.4h6.5v7.1h-6.5v12.2c0,1.5,0.2,2.5,0.7,3
		c0.4,0.5,1.2,0.8,2.3,0.8c0.5,0,1.1,0,1.6-0.1c0.5-0.1,1.1-0.2,1.7-0.3L565.8,104.5z"/>
	<path d="M581.3,65.5c0,0.8-0.2,1.5-0.5,2.2c-0.3,0.7-0.7,1.2-1.2,1.7c-0.5,0.5-1.1,0.9-1.8,1.2c-0.7,0.3-1.4,0.4-2.2,0.4
		c-0.8,0-1.5-0.1-2.2-0.4c-0.7-0.3-1.3-0.7-1.8-1.2c-0.5-0.5-0.9-1.1-1.2-1.7c-0.3-0.7-0.5-1.4-0.5-2.2c0-0.7,0.1-1.4,0.5-2.1
		c0.3-0.7,0.7-1.3,1.2-1.8c0.5-0.5,1.1-0.9,1.8-1.2c0.7-0.3,1.4-0.4,2.2-0.4c0.8,0,1.5,0.1,2.2,0.4c0.7,0.3,1.3,0.7,1.8,1.2
		c0.5,0.5,0.9,1.1,1.2,1.7C581.2,64.1,581.3,64.8,581.3,65.5z M571.1,104.7V74.5h9.1v30.2H571.1z"/>
	<path d="M604.6,104.7l-8.1-14.5v14.5h-9.1V60.4h9.1v26.3l7.6-12.1h10.8l-9.6,13.4l10.7,16.8H604.6z"/>
	<path d="M651.1,67.8c-1.2-0.4-2.3-0.5-3.4-0.5c-1.4,0-2.4,0.4-3,1.2c-0.6,0.8-0.9,2-0.9,3.6v2.4h6.1v7.1h-6.1v23.1h-9.1V81.6H630
		v-7.1h4.6v-1.7c0-4.2,1-7.5,3-9.7c2-2.2,5.2-3.3,9.6-3.3c0.6,0,1.3,0,2.1,0.1c0.8,0.1,1.5,0.1,2.3,0.2L651.1,67.8z"/>
	<path d="M673,104.7c0-0.6,0-1.3,0.1-2.2c0-0.9,0.1-1.8,0.3-2.5l-0.1-0.1c-0.9,1.6-2.2,2.9-3.8,3.9c-1.6,1-3.6,1.5-6.1,1.5
		c-1.7,0-3.1-0.3-4.2-0.8c-1.1-0.5-2-1.2-2.7-2.1c-0.7-0.9-1.2-1.9-1.5-3.1c-0.3-1.2-0.5-2.4-0.5-3.7V74.5h9.1v19.2
		c0,1.2,0.2,2.2,0.6,2.9c0.4,0.7,1.1,1,2.2,1c0.8,0,1.6-0.2,2.3-0.7c0.7-0.5,1.4-1.1,1.9-1.9c0.5-0.8,1-1.7,1.3-2.7
		c0.3-1,0.5-2.1,0.5-3.2V74.5h9.1v30.2H673z M666.5,65.5c0,1.3-0.5,2.5-1.4,3.4c-0.9,0.9-2,1.4-3.4,1.4c-1.3,0-2.4-0.5-3.3-1.4
		c-0.9-0.9-1.4-2.1-1.4-3.4c0-1.3,0.5-2.4,1.4-3.4c0.9-1,2.1-1.4,3.3-1.4c1.3,0,2.4,0.5,3.4,1.4C666,63.1,666.5,64.3,666.5,65.5z
		 M679,65.5c0,1.3-0.5,2.5-1.4,3.4c-0.9,0.9-2,1.4-3.4,1.4c-1.3,0-2.4-0.5-3.3-1.4c-0.9-0.9-1.4-2.1-1.4-3.4c0-1.3,0.5-2.4,1.4-3.4
		c0.9-1,2.1-1.4,3.3-1.4c1.3,0,2.4,0.5,3.4,1.4C678.6,63.1,679,64.3,679,65.5z"/>
	<path d="M705.3,83c-2.5-0.6-4.4-0.1-5.7,1.4c-1.3,1.5-1.9,4.1-1.9,7.9v12.4h-9.1V74.5h8.5c0,0.6,0,1.5-0.1,2.5
		c-0.1,1-0.2,2-0.3,2.9h0.1c0.8-1.8,1.9-3.3,3.4-4.5c1.4-1.2,3.3-1.7,5.6-1.6L705.3,83z"/>
	<path d="M486.4,140.7c0,3.5-0.5,6.6-1.6,9.3c-1.1,2.7-2.6,4.9-4.5,6.8c-1.9,1.8-4.3,3.2-7,4.1c-2.7,0.9-5.7,1.4-9,1.4
		c-2.2,0-4.2,0-6.2-0.1c-2-0.1-3.9-0.2-5.8-0.2v-40.8c1.6-0.1,3.6-0.2,6-0.2c2.4-0.1,5-0.1,7.8-0.1c3,0,5.8,0.4,8.3,1.1
		c2.5,0.7,4.6,1.9,6.4,3.4c1.8,1.6,3.1,3.6,4.1,6.2C485.9,134,486.4,137.1,486.4,140.7z M476.4,141.5c0-1.9-0.2-3.7-0.5-5.2
		c-0.3-1.6-0.9-2.9-1.8-4c-0.8-1.1-2-1.9-3.4-2.5c-1.4-0.6-3.1-0.9-5.2-0.9c-0.8,0-1.5,0-2.2,0c-0.6,0-1.2,0-1.7,0.1v25
		c0.4,0.1,0.9,0.1,1.5,0.2c0.6,0,1.3,0.1,2,0.1c1.6,0,3.1-0.3,4.5-0.8c1.4-0.5,2.6-1.3,3.6-2.3c1-1,1.8-2.4,2.3-4
		C476.1,145.6,476.4,143.7,476.4,141.5z"/>
	<path d="M502.1,122.9c0,0.8-0.2,1.5-0.5,2.2c-0.3,0.7-0.7,1.2-1.2,1.7c-0.5,0.5-1.1,0.9-1.8,1.2c-0.7,0.3-1.4,0.4-2.2,0.4
		c-0.8,0-1.5-0.1-2.2-0.4c-0.7-0.3-1.3-0.7-1.8-1.2c-0.5-0.5-0.9-1.1-1.2-1.7c-0.3-0.7-0.5-1.4-0.5-2.2c0-0.7,0.1-1.4,0.5-2.1
		c0.3-0.7,0.7-1.3,1.2-1.8c0.5-0.5,1.1-0.9,1.8-1.2c0.7-0.3,1.4-0.4,2.2-0.4c0.8,0,1.5,0.1,2.2,0.4c0.7,0.3,1.3,0.7,1.8,1.2
		c0.5,0.5,0.9,1.1,1.2,1.7C501.9,121.4,502.1,122.1,502.1,122.9z M491.9,162v-30.2h9.1V162H491.9z"/>
	<path d="M524.3,162.4c-1.4,0.2-2.8,0.3-4.2,0.3c-4.6,0-8-1.2-10.3-3.7c-2.3-2.5-3.4-6.2-3.4-11.1c0-2.3,0.3-4.4,0.9-6.4
		c0.6-2,1.6-3.8,2.8-5.3c1.3-1.5,2.9-2.7,4.8-3.6c2-0.9,4.3-1.3,7-1.3c1,0,2.1,0.1,3.1,0.3c1,0.2,2,0.4,2.9,0.8l-1.4,8
		c-1.6-0.7-3.1-1-4.7-1c-2,0-3.5,0.7-4.5,2.2c-1,1.4-1.5,3.4-1.5,5.9c0,2.3,0.5,4.1,1.5,5.5c1,1.3,2.5,2,4.5,2
		c0.9,0,1.7-0.1,2.6-0.2c0.9-0.2,1.7-0.4,2.4-0.8l1.1,7.8C527,161.9,525.7,162.2,524.3,162.4z"/>
	<path d="M551.1,162v-19.2c0-1.2-0.2-2.2-0.6-2.9c-0.4-0.7-1.1-1-2.2-1c-0.8,0-1.6,0.2-2.3,0.7s-1.4,1.1-1.9,1.9
		c-0.5,0.8-1,1.7-1.3,2.7c-0.3,1-0.5,2.1-0.5,3.2V162h-9.1v-44.3h9.1v12.1c0,0.9,0,1.9-0.1,3.1c-0.1,1.2-0.2,2.2-0.4,3.1h0.1
		c0.9-1.4,2.1-2.6,3.7-3.5c1.6-0.9,3.5-1.3,5.7-1.3c1.7,0,3.1,0.3,4.2,0.8c1.1,0.5,2,1.2,2.7,2.1c0.7,0.9,1.2,1.9,1.5,3.1
		c0.3,1.2,0.5,2.4,0.5,3.7V162H551.1z"/>
	<path d="M577.9,157.1c0,0.8-0.2,1.6-0.5,2.2c-0.3,0.7-0.7,1.3-1.2,1.8c-0.5,0.5-1.1,0.9-1.8,1.2c-0.7,0.3-1.4,0.5-2.2,0.5
		c-0.8,0-1.5-0.2-2.2-0.5c-0.7-0.3-1.3-0.7-1.8-1.2c-0.5-0.5-0.9-1.1-1.2-1.8c-0.3-0.7-0.5-1.4-0.5-2.2c0-0.8,0.2-1.5,0.5-2.2
		c0.3-0.7,0.7-1.3,1.2-1.9c0.5-0.5,1.1-0.9,1.8-1.2c0.7-0.3,1.4-0.5,2.2-0.5c0.8,0,1.5,0.2,2.2,0.5c0.7,0.3,1.3,0.7,1.8,1.2
		c0.5,0.5,0.9,1.1,1.2,1.9C577.8,155.6,577.9,156.3,577.9,157.1z"/>
</g>
</svg>
